…
    ## Rows: 52179 Columns: 12
    ## ── Column specification ────────────────────────────────────────────────────────
    ## Delimiter: ","
    ## chr (8): uid, victim_last, victim_first, victim_race, victim_sex, city, stat...
    ## dbl (4): reported_date, victim_age, lat, lon
    ## 
    ## ℹ Use `spec()` to retrieve the full column specification for this data.
    ## ℹ Specify the column types or set `show_col_types = FALSE` to quiet this message.

``` r
homicide_df
```

    ## # A tibble: 39,693 × 5
    ##    city_state      resolution victim_age victim_sex victim_race
    ##    <chr>                <dbl>      <dbl> <chr>      <chr>      
    ##  1 Albuquerque, NM          0         15 Female     White      
    ##  2 Albuquerque, NM          0         72 Female     White      
    ##  3 Albuquerque, NM          0         91 Female     White      
    ##  4 Albuquerque, NM          0         56 Male       White      
    ##  5 Albuquerque, NM          0         NA Male       White      
    ##  6 Albuquerque, NM          1         43 Female     White      
    ##  7 Albuquerque, NM          1         52 Male       White      
    ##  8 Albuquerque, NM          1         22 Female     White      
    ##  9 Albuquerque, NM          1         15 Male       Black      
    ## 10 Albuquerque, NM          1         25 Male       Black      
    ## # ℹ 39,683 more rows
…
| city_state      |    OR | OR_CI_lower | OR_CI_upper |
|:----------------|------:|------------:|------------:|
| Albuquerque, NM | 1.767 |       0.831 |       3.761 |
| Atlanta, GA     | 1.000 |       0.684 |       1.463 |
| Baltimore, MD   | 0.426 |       0.325 |       0.558 |
| Baton Rouge, LA | 0.381 |       0.209 |       0.695 |
| Birmingham, AL  | 0.870 |       0.574 |       1.318 |

``` r
model_results
```

    ## # A tibble: 47 × 4
    ##    city_state         OR OR_CI_lower OR_CI_upper
    ##    <chr>           <dbl>       <dbl>       <dbl>
    ##  1 Albuquerque, NM 1.77        0.831       3.76 
    ##  2 Atlanta, GA     1.00        0.684       1.46 
    ##  3 Baltimore, MD   0.426       0.325       0.558
    ##  4 Baton Rouge, LA 0.381       0.209       0.695
    ##  5 Birmingham, AL  0.870       0.574       1.32 
    ##  6 Boston, MA      0.667       0.354       1.26 
    ##  7 Buffalo, NY     0.521       0.290       0.935
    ##  8 Charlotte, NC   0.884       0.557       1.40 
    ##  9 Chicago, IL     0.410       0.336       0.501
    ## 10 Cincinnati, OH  0.400       0.236       0.677
    ## # ℹ 37 more rows
…
``` r
model_results
```

    ## # A tibble: 47 × 4
    ##    city_state         OR OR_CI_lower OR_CI_upper
    ##    <chr>           <dbl>       <dbl>       <dbl>
    ##  1 Albuquerque, NM 1.77        0.831       3.76 
    ##  2 Atlanta, GA     1.00        0.684       1.46 
    ##  3 Baltimore, MD   0.426       0.325       0.558
    ##  4 Baton Rouge, LA 0.381       0.209       0.695
    ##  5 Birmingham, AL  0.870       0.574       1.32 
    ##  6 Boston, MA      0.667       0.354       1.26 
    ##  7 Buffalo, NY     0.521       0.290       0.935
    ##  8 Charlotte, NC   0.884       0.557       1.40 
    ##  9 Chicago, IL     0.410       0.336       0.501
    ## 10 Cincinnati, OH  0.400       0.236       0.677
    ## # ℹ 37 more rows
…
    ## using cached file: /Users/christinecym/Library/Caches/org.R-project.R/R/rnoaa/noaa_ghcnd/USW00094728.dly

    ## date created (size, mb): 2023-11-30 21:48:02.57811 (8.544)

    ## file min/max dates: 1869-01-01 / 2023-11-30

``` r
weather_df
```

    ## # A tibble: 365 × 6
    ##    name           id          date        prcp  tmax  tmin
    ##    <chr>          <chr>       <date>     <dbl> <dbl> <dbl>
    ##  1 CentralPark_NY USW00094728 2022-01-01   201  13.3  10  
    ##  2 CentralPark_NY USW00094728 2022-01-02    10  15     2.8
    ##  3 CentralPark_NY USW00094728 2022-01-03     0   2.8  -5.5
    ##  4 CentralPark_NY USW00094728 2022-01-04     0   1.1  -7.1
    ##  5 CentralPark_NY USW00094728 2022-01-05    58   8.3  -0.5
    ##  6 CentralPark_NY USW00094728 2022-01-06     0   5     1.1
    ##  7 CentralPark_NY USW00094728 2022-01-07    97   1.1  -3.8
    ##  8 CentralPark_NY USW00094728 2022-01-08     0  -1    -6.6
    ##  9 CentralPark_NY USW00094728 2022-01-09    25   4.4  -1.6
    ## 10 CentralPark_NY USW00094728 2022-01-10     0   4.4  -4.3
    ## # ℹ 355 more rows
…
``` r
bootstrap_sample = function(data) {
  sample_frac(data, replace = TRUE)
}


bootstrap_tibble = 
  tibble(number = 1:5000) |>
  mutate(
    sample = map(number, \(i) bootstrap_sample(weather_df)))

bootstrap_tibble
```

    ## # A tibble: 5,000 × 2
    ##    number sample            
    ##     <int> <list>            
    ##  1      1 <tibble [365 × 6]>
    ##  2      2 <tibble [365 × 6]>
    ##  3      3 <tibble [365 × 6]>
    ##  4      4 <tibble [365 × 6]>
    ##  5      5 <tibble [365 × 6]>
    ##  6      6 <tibble [365 × 6]>
    ##  7      7 <tibble [365 × 6]>
    ##  8      8 <tibble [365 × 6]>
    ##  9      9 <tibble [365 × 6]>
    ## 10     10 <tibble [365 × 6]>
    ## # ℹ 4,990 more rows

``` r
bootstrap_results1 = bootstrap_tibble |>
  mutate(
    models = map(sample, \(df) lm(tmax ~ tmin + prcp, data = df)),
    results = map(models, broom::tidy),
    r_squared = map_dbl(models, \(model) summary(model)$r.squared)) |> 
  select(-models) |> 
  unnest(results) 

bootstrap_results1
```

    ## # A tibble: 15,000 × 8
    ##    number sample   term        estimate std.error statistic   p.value r_squared
    ##     <int> <list>   <chr>          <dbl>     <dbl>     <dbl>     <dbl>     <dbl>
    ##  1      1 <tibble> (Intercept)  8.02      0.238       33.7  7.93e-114     0.919
    ##  2      1 <tibble> tmin         1.03      0.0161      63.7  1.07e-198     0.919
    ##  3      1 <tibble> prcp        -0.00596   0.00238     -2.51 1.26e-  2     0.919
    ##  4      2 <tibble> (Intercept)  8.28      0.203       40.8  1.53e-137     0.932
    ##  5      2 <tibble> tmin         1.02      0.0144      70.4  2.27e-213     0.932
    ##  6      2 <tibble> prcp        -0.00596   0.00207     -2.89 4.12e-  3     0.932
    ##  7      3 <tibble> (Intercept)  7.74      0.225       34.5  2.33e-116     0.922
    ##  8      3 <tibble> tmin         1.04      0.0159      65.1  6.21e-202     0.922
    ##  9      3 <tibble> prcp        -0.00605   0.00213     -2.84 4.82e-  3     0.922
    ## 10      4 <tibble> (Intercept)  8.34      0.241       34.7  4.07e-117     0.905
    ## # ℹ 14,990 more rows
…
    ## Warning: There was 1 warning in `mutate()`.
    ## ℹ In argument: `log_beta = log(tmin * prcp)`.
    ## Caused by warning in `log()`:
    ## ! NaNs produced

``` r
bootstrap_results2
```

    ## # A tibble: 5,000 × 6
    ##    number r_squared `(Intercept)`  tmin      prcp log_beta
    ##     <int>     <dbl>         <dbl> <dbl>     <dbl>    <dbl>
    ##  1      1     0.919          8.02 1.03  -0.00596       NaN
    ##  2      2     0.932          8.28 1.02  -0.00596       NaN
    ##  3      3     0.922          7.74 1.04  -0.00605       NaN
    ##  4      4     0.905          8.34 0.989 -0.00363       NaN
    ##  5      5     0.936          8.10 1.01  -0.00737       NaN
    ##  6      6     0.935          7.98 1.02  -0.00705       NaN
    ##  7      7     0.934          7.76 1.04  -0.00693       NaN
    ##  8      8     0.891          8.49 0.990 -0.000346      NaN
    ##  9      9     0.907          8.50 0.988 -0.00781       NaN
    ## 10     10     0.932          7.76 1.03  -0.00662       NaN
    ## # ℹ 4,990 more rows
…
    ## Rows: 4342 Columns: 20
    ## ── Column specification ────────────────────────────────────────────────────────
    ## Delimiter: ","
    ## dbl (20): babysex, bhead, blength, bwt, delwt, fincome, frace, gaweeks, malf...
    ## 
    ## ℹ Use `spec()` to retrieve the full column specification for this data.
    ## ℹ Specify the column types or set `show_col_types = FALSE` to quiet this message.

``` r
birthweight
```

    ## # A tibble: 4,342 × 20
    ##    babysex bhead blength   bwt delwt fincome frace gaweeks malform menarche
    ##    <chr>   <dbl>   <dbl> <dbl> <dbl>   <dbl> <chr>   <dbl> <chr>      <dbl>
    ##  1 female     34      51  3629   177      35 White    39.9 absent        13
    ##  2 male       34      48  3062   156      65 Black    25.9 absent        14
    ##  3 female     36      50  3345   148      85 White    39.9 absent        12
    ##  4 male       34      52  3062   157      55 White    40   absent        14
    ##  5 female     34      52  3374   156       5 White    41.6 absent        13
    ##  6 male       33      52  3374   129      55 White    40.7 absent        12
    ##  7 female     33      46  2523   126      96 Black    40.3 absent        14
    ##  8 female     33      49  2778   140       5 White    37.4 absent        12
    ##  9 male       36      52  3515   146      85 White    40.3 absent        11
    ## 10 male       33      50  3459   169      75 Black    40.7 absent        12
    ## # ℹ 4,332 more rows
    ## # ℹ 10 more variables: mheight <dbl>, momage <dbl>, mrace <chr>, parity <dbl>,
    ## #   pnumlbw <dbl>, pnumsga <dbl>, ppbmi <dbl>, ppwt <dbl>, smoken <dbl>,
    ## #   wtgain <dbl>
…
    ## Warning in predict.lm(model, data): prediction from rank-deficient fit; attr(*,
    ## "non-estim") has doubtful cases

    ## Warning in predict.lm(model, data): prediction from rank-deficient fit; attr(*,
    ## "non-estim") has doubtful cases

``` r
birthweight_df
```

    ## # A tibble: 4,342 × 22
    ##    babysex bhead blength   bwt delwt fincome frace gaweeks malform menarche
    ##    <chr>   <dbl>   <dbl> <dbl> <dbl>   <dbl> <chr>   <dbl> <chr>      <dbl>
    ##  1 female     34      51  3629   177      35 White    39.9 absent        13
    ##  2 male       34      48  3062   156      65 Black    25.9 absent        14
    ##  3 female     36      50  3345   148      85 White    39.9 absent        12
    ##  4 male       34      52  3062   157      55 White    40   absent        14
    ##  5 female     34      52  3374   156       5 White    41.6 absent        13
    ##  6 male       33      52  3374   129      55 White    40.7 absent        12
    ##  7 female     33      46  2523   126      96 Black    40.3 absent        14
    ##  8 female     33      49  2778   140       5 White    37.4 absent        12
    ##  9 male       36      52  3515   146      85 White    40.3 absent        11
    ## 10 male       33      50  3459   169      75 Black    40.7 absent        12
    ## # ℹ 4,332 more rows
    ## # ℹ 12 more variables: mheight <dbl>, momage <dbl>, mrace <chr>, parity <dbl>,
    ## #   pnumlbw <dbl>, pnumsga <dbl>, ppbmi <dbl>, ppwt <dbl>, smoken <dbl>,
    ## #   wtgain <dbl>, pred <dbl>, resid <dbl>
…
Make this comparison in terms of the cross-validated prediction error;
use crossv_mc and functions in purrr as appropriate.

``` r
set.seed(123)

# Set train and test data with sample_n()
train = sample_n(birthweight, 80)
train
```

    ## # A tibble: 80 × 20
    ##    babysex bhead blength   bwt delwt fincome frace      gaweeks malform menarche
    ##    <chr>   <dbl>   <dbl> <dbl> <dbl>   <dbl> <chr>        <dbl> <chr>      <dbl>
    ##  1 male       38      51  3997   130      55 Puerto Ri…    41.6 absent        11
    ##  2 female     34      50  3345   138      75 Puerto Ri…    39.6 absent        14
    ##  3 male       33      44  2296   125      55 Black         36.6 absent        13
    ##  4 male       35      53  3260   168      75 White         41.6 absent        11
    ##  5 female     33      50  2637   155      45 Black         37.1 absent        13
    ##  6 male       36      52  3714   171      55 White         46.1 absent        12
    ##  7 male       34      50  3090   150      65 Black         40.1 absent        14
    ##  8 female     31      50  2835   177      95 White         40.9 absent        12
    ##  9 male       32      51  2750   130      35 Black         37.9 absent        14
    ## 10 female     32      46  2438   126      55 Black         42.9 absent        13
    ## # ℹ 70 more rows
    ## # ℹ 10 more variables: mheight <dbl>, momage <dbl>, mrace <chr>, parity <dbl>,
    ## #   pnumlbw <dbl>, pnumsga <dbl>, ppbmi <dbl>, ppwt <dbl>, smoken <dbl>,
    ## #   wtgain <dbl>

``` r
test = anti_join(birthweight, train)
```

    ## Joining with `by = join_by(babysex, bhead, blength, bwt, delwt, fincome, frace,
    ## gaweeks, malform, menarche, mheight, momage, mrace, parity, pnumlbw, pnumsga,
    ## ppbmi, ppwt, smoken, wtgain)`

``` r
test
```

    ## # A tibble: 4,262 × 20
    ##    babysex bhead blength   bwt delwt fincome frace gaweeks malform menarche
    ##    <chr>   <dbl>   <dbl> <dbl> <dbl>   <dbl> <chr>   <dbl> <chr>      <dbl>
    ##  1 female     34      51  3629   177      35 White    39.9 absent        13
    ##  2 male       34      48  3062   156      65 Black    25.9 absent        14
    ##  3 female     36      50  3345   148      85 White    39.9 absent        12
    ##  4 male       34      52  3062   157      55 White    40   absent        14
    ##  5 female     34      52  3374   156       5 White    41.6 absent        13
    ##  6 male       33      52  3374   129      55 White    40.7 absent        12
    ##  7 female     33      46  2523   126      96 Black    40.3 absent        14
    ##  8 female     33      49  2778   140       5 White    37.4 absent        12
    ##  9 male       36      52  3515   146      85 White    40.3 absent        11
    ## 10 male       33      50  3459   169      75 Black    40.7 absent        12
    ## # ℹ 4,252 more rows
    ## # ℹ 10 more variables: mheight <dbl>, momage <dbl>, mrace <chr>, parity <dbl>,
    ## #   pnumlbw <dbl>, pnumsga <dbl>, ppbmi <dbl>, ppwt <dbl>, smoken <dbl>,
    ## #   wtgain <dbl>
…
cv_df0 =
  crossv_mc(birthweight, n = 100) 


cv_train = 
  cv_df0 |> 
  pull(train) |> 
  nth(1) |> 
  as_tibble()

cv_train
```

    ## # A tibble: 3,473 × 20
    ##    babysex bhead blength   bwt delwt fincome frace gaweeks malform menarche
    ##    <chr>   <dbl>   <dbl> <dbl> <dbl>   <dbl> <chr>   <dbl> <chr>      <dbl>
    ##  1 female     36      50  3345   148      85 White    39.9 absent        12
    ##  2 male       34      52  3062   157      55 White    40   absent        14
    ##  3 male       33      52  3374   129      55 White    40.7 absent        12
    ##  4 female     33      46  2523   126      96 Black    40.3 absent        14
    ##  5 female     33      49  2778   140       5 White    37.4 absent        12
    ##  6 male       36      52  3515   146      85 White    40.3 absent        11
    ##  7 male       33      50  3459   169      75 Black    40.7 absent        12
    ##  8 female     35      51  3317   130      55 White    43.4 absent        13
    ##  9 male       35      51  3459   146      55 White    39.4 absent        12
    ## 10 female     35      48  3175   158      75 White    39.7 absent        13
    ## # ℹ 3,463 more rows
    ## # ℹ 10 more variables: mheight <dbl>, momage <dbl>, mrace <chr>, parity <dbl>,
    ## #   pnumlbw <dbl>, pnumsga <dbl>, ppbmi <dbl>, ppwt <dbl>, smoken <dbl>,
    ## #   wtgain <dbl>

``` r
cv_test =
  cv_df0 |> 
  pull(test) |> 
  nth(1) |> 
  as_tibble()

cv_test
```

    ## # A tibble: 869 × 20
    ##    babysex bhead blength   bwt delwt fincome frace gaweeks malform menarche
    ##    <chr>   <dbl>   <dbl> <dbl> <dbl>   <dbl> <chr>   <dbl> <chr>      <dbl>
    ##  1 female     34      51  3629   177      35 White    39.9 absent        13
    ##  2 male       34      48  3062   156      65 Black    25.9 absent        14
    ##  3 female     34      52  3374   156       5 White    41.6 absent        13
    ##  4 male       36      53  3629   147      75 White    41.3 absent        11
    ##  5 male       35      56  3232   147      55 White    42.1 absent        13
    ##  6 female     35      53  3345   127      65 Black    39.7 absent        14
    ##  7 female     36      51  2977   135      45 White    41.7 absent        13
    ##  8 female     33      49  2948   129      25 White    41   absent        13
    ##  9 female     34      54  3345   130      95 White    42.1 absent        10
    ## 10 male       35      52  3232   121      75 Asian    42.3 absent        13
    ## # ℹ 859 more rows
    ## # ℹ 10 more variables: mheight <dbl>, momage <dbl>, mrace <chr>, parity <dbl>,
    ## #   pnumlbw <dbl>, pnumsga <dbl>, ppbmi <dbl>, ppwt <dbl>, smoken <dbl>,
    ## #   wtgain <dbl>
…
    ## Warning: There were 100 warnings in `mutate()`.
    ## The first warning was:
    ## ℹ In argument: `rmse_bwmodel = map2_dbl(...)`.
    ## Caused by warning in `predict.lm()`:
    ## ! prediction from rank-deficient fit; attr(*, "non-estim") has doubtful cases
    ## ℹ Run `dplyr::last_dplyr_warnings()` to see the 99 remaining warnings.

``` r
cv_df2
```

    ## # A tibble: 100 × 9
    ##    train    test     .id   birthweight_model model1 model2 rmse_bwmodel
    ##    <list>   <list>   <chr> <list>            <list> <list>        <dbl>
    ##  1 <tibble> <tibble> 001   <lm>              <lm>   <lm>           268.
    ##  2 <tibble> <tibble> 002   <lm>              <lm>   <lm>           284.
    ##  3 <tibble> <tibble> 003   <lm>              <lm>   <lm>           296.
    ##  4 <tibble> <tibble> 004   <lm>              <lm>   <lm>           280.
    ##  5 <tibble> <tibble> 005   <lm>              <lm>   <lm>           265.
    ##  6 <tibble> <tibble> 006   <lm>              <lm>   <lm>           270.
    ##  7 <tibble> <tibble> 007   <lm>              <lm>   <lm>           279.
    ##  8 <tibble> <tibble> 008   <lm>              <lm>   <lm>           274.
    ##  9 <tibble> <tibble> 009   <lm>              <lm>   <lm>           277.
    ## 10 <tibble> <tibble> 010   <lm>              <lm>   <lm>           276.
    ## # ℹ 90 more rows
    ## # ℹ 2 more variables: rmse_model1 <dbl>, rmse_model2 <dbl>
…
